<?xml version="1.0" encoding="UTF-8" standalone="no"?>
<!-- Created with Inkscape (http://www.inkscape.org/) -->

<svg
   xmlns:dc="http://purl.org/dc/elements/1.1/"
   xmlns:cc="http://creativecommons.org/ns#"
   xmlns:rdf="http://www.w3.org/1999/02/22-rdf-syntax-ns#"
   xmlns:svg="http://www.w3.org/2000/svg"
   xmlns="http://www.w3.org/2000/svg"
   xmlns:sodipodi="http://sodipodi.sourceforge.net/DTD/sodipodi-0.dtd"
   xmlns:inkscape="http://www.inkscape.org/namespaces/inkscape"
   width="680.875"
   height="321"
   id="svg2"
   version="1.1"
   inkscape:version="0.48.3.1 r9886"
   sodipodi:docname="grid.svg"
   inkscape:export-filename="/home/mfelis/projects/ld48/28/img/grid.png"
   inkscape:export-xdpi="47.290001"
   inkscape:export-ydpi="47.290001">
  <defs
     id="defs4">
    <inkscape:path-effect
       effect="envelope"
       id="path-effect3186"
       is_visible="true"
       yy="true"
       xx="false"
       bendpath1="m 180,112.36218 480,0"
       bendpath2="m 660,112.36218 0,320"
       bendpath3="m 80,432.36218 680,0"
       bendpath4="m 180,112.36218 0,320"
       bendpath3-nodetypes="cc" />
    <inkscape:path-effect
       effect="envelope"
       id="path-effect3142"
       is_visible="true"
       yy="true"
       xx="true"
       bendpath1="m 180,112.36218 440,0"
       bendpath2="m 620,112.36218 0,320"
       bendpath3="m 180,432.36218 440,0"
       bendpath4="m 180,112.36218 0,320" />
    <inkscape:path-effect
       effect="construct_grid"
       id="path-effect3140"
       is_visible="true"
       nr_x="5"
       nr_y="5" />
    <inkscape:path-effect
       effect="envelope"
       id="path-effect3138"
       is_visible="true"
       yy="false"
       xx="true"
       bendpath1="m 180,112.36218 440,0"
       bendpath2="m 620,112.36218 0,320"
       bendpath3="m 180,432.36218 440,0"
       bendpath4="m 180,112.36218 0,320" />
    <inkscape:path-effect
       effect="bend_path"
       id="path-effect3136"
       is_visible="true"
       bendpath="m 180,272.36218 440,0"
       prop_scale="1"
       scale_y_rel="false"
       vertical="false" />
  </defs>
  <sodipodi:namedview
     id="base"
     pagecolor="#ffffff"
     bordercolor="#666666"
     borderopacity="1.0"
     inkscape:pageopacity="0.0"
     inkscape:pageshadow="2"
     inkscape:zoom="0.7"
     inkscape:cx="460.5167"
     inkscape:cy="98.278607"
     inkscape:document-units="px"
     inkscape:current-layer="g3162"
     showgrid="false"
     fit-margin-top="0"
     fit-margin-left="0"
     fit-margin-right="0"
     fit-margin-bottom="0"
     inkscape:window-width="1362"
     inkscape:window-height="729"
     inkscape:window-x="0"
     inkscape:window-y="37"
     inkscape:window-maximized="0"
     showguides="true"
     inkscape:guide-bbox="true">
    <inkscape:grid
       type="xygrid"
       id="grid2985"
       empspacing="5"
       visible="true"
       enabled="true"
       snapvisiblegridlinesonly="true"
       originx="-45.026786px"
       originy="-611.04075px" />
    <sodipodi:guide
       orientation="1,0"
       position="760,-1.4285714"
       id="guide3975" />
  </sodipodi:namedview>
  <metadata
     id="metadata7">
    <rdf:RDF>
      <cc:Work
         rdf:about="">
        <dc:format>image/svg+xml</dc:format>
        <dc:type
           rdf:resource="http://purl.org/dc/dcmitype/StillImage" />
        <dc:title></dc:title>
      </cc:Work>
    </rdf:RDF>
  </metadata>
  <g
     inkscape:label="Layer 1"
     inkscape:groupmode="layer"
     id="layer1"
     transform="translate(-45.026786,-120.32143)">
    <g
       id="g3113"
       transform="translate(-100,20.000003)">
      <g
         id="g3162"
         inkscape:path-effect="#path-effect3186"
         transform="translate(65.714286,-11.428571)"
         inkscape:export-xdpi="47.290001"
         inkscape:export-ydpi="47.290001">
        <path
           style="fill:none;stroke:#000000;stroke-width:2;stroke-linecap:butt;stroke-linejoin:miter;stroke-opacity:1;stroke-miterlimit:4;stroke-dasharray:none"
           d="m 179.85514,112.24982 c -33.35833,106.66666 -66.71667,213.33333 -100.075,320"
           id="path2987"
           inkscape:connector-curvature="0"
           inkscape:original-d="m 180,112.36218 0,320" />
        <path
           style="fill:none;stroke:#000000;stroke-width:2;stroke-linecap:butt;stroke-linejoin:miter;stroke-opacity:1;stroke-miterlimit:4;stroke-dasharray:none"
           d="m 219.84929,112.24982 c -27.80278,106.66666 -55.60556,213.33333 -83.40834,320"
           id="path2987-4"
           inkscape:connector-curvature="0"
           inkscape:original-d="m 220,112.36218 0,320" />
        <path
           style="fill:none;stroke:#000000;stroke-width:2;stroke-linecap:butt;stroke-linejoin:miter;stroke-opacity:1;stroke-miterlimit:4;stroke-dasharray:none"
           d="m 259.84344,112.24982 c -22.24723,106.66666 -44.49445,213.33333 -66.74167,320"
           id="path2987-4-9"
           inkscape:connector-curvature="0"
           inkscape:original-d="m 260,112.36218 0,320" />
        <path
           style="fill:none;stroke:#000000;stroke-width:2;stroke-linecap:butt;stroke-linejoin:miter;stroke-opacity:1;stroke-miterlimit:4;stroke-dasharray:none"
           d="m 299.83758,112.24982 c -16.69166,106.66666 -33.38333,213.33333 -50.075,320"
           id="path2987-4-5"
           inkscape:connector-curvature="0"
           inkscape:original-d="m 300,112.36218 0,320" />
        <path
           style="fill:none;stroke:#000000;stroke-width:2;stroke-linecap:butt;stroke-linejoin:miter;stroke-opacity:1;stroke-miterlimit:4;stroke-dasharray:none"
           d="m 339.83173,112.24982 c -11.13611,106.66666 -22.27222,213.33333 -33.40833,320"
           id="path2987-5"
           inkscape:connector-curvature="0"
           inkscape:original-d="m 340,112.36218 0,320" />
        <path
           style="fill:none;stroke:#000000;stroke-width:2;stroke-linecap:butt;stroke-linejoin:miter;stroke-opacity:1;stroke-miterlimit:4;stroke-dasharray:none"
           d="m 379.82588,112.24982 c -5.58056,106.66666 -11.16111,213.33333 -16.74167,320"
           id="path2987-4-6"
           inkscape:connector-curvature="0"
           inkscape:original-d="m 380,112.36218 0,320" />
        <path
           style="fill:none;stroke:#000000;stroke-width:2;stroke-linecap:butt;stroke-linejoin:miter;stroke-opacity:1;stroke-miterlimit:4;stroke-dasharray:none"
           d="m 419.82003,112.24982 c -0.025,106.66666 -0.05,213.33333 -0.075,320"
           id="path2987-4-9-1"
           inkscape:connector-curvature="0"
           inkscape:original-d="m 420,112.36218 0,320" />
        <path
           style="fill:none;stroke:#000000;stroke-width:2;stroke-linecap:butt;stroke-linejoin:miter;stroke-opacity:1;stroke-miterlimit:4;stroke-dasharray:none"
           d="m 459.81417,112.24982 c 5.53056,106.66666 11.06112,213.33333 16.59167,320"
           id="path2987-4-5-5"
           inkscape:connector-curvature="0"
           inkscape:original-d="m 460,112.36218 0,320" />
        <path
           style="fill:none;stroke:#000000;stroke-width:2;stroke-linecap:butt;stroke-linejoin:miter;stroke-opacity:1;stroke-miterlimit:4;stroke-dasharray:none"
           d="m 499.80832,112.24982 c 11.08611,106.66666 22.17222,213.33333 33.25834,320"
           id="path2987-45"
           inkscape:connector-curvature="0"
           inkscape:original-d="m 500,112.36218 0,320" />
        <path
           style="fill:none;stroke:#000000;stroke-width:2;stroke-linecap:butt;stroke-linejoin:miter;stroke-opacity:1;stroke-miterlimit:4;stroke-dasharray:none"
           d="m 539.80247,112.24982 c 16.64167,106.66666 33.28333,213.33333 49.925,320"
           id="path2987-4-8"
           inkscape:connector-curvature="0"
           inkscape:original-d="m 540,112.36218 0,320" />
        <path
           style="fill:none;stroke:#000000;stroke-width:2;stroke-linecap:butt;stroke-linejoin:miter;stroke-opacity:1;stroke-miterlimit:4;stroke-dasharray:none"
           d="m 579.79662,112.24982 c 22.19722,106.66666 44.39444,213.33333 66.59166,320"
           id="path2987-4-9-5"
           inkscape:connector-curvature="0"
           inkscape:original-d="m 580,112.36218 0,320" />
        <path
           style="fill:none;stroke:#000000;stroke-width:2;stroke-linecap:butt;stroke-linejoin:miter;stroke-opacity:1;stroke-miterlimit:4;stroke-dasharray:none"
           d="m 619.79077,112.24982 c 27.75277,106.66666 55.50555,213.33333 83.25833,320"
           id="path2987-4-5-2"
           inkscape:connector-curvature="0"
           inkscape:original-d="m 620,112.36218 0,320" />
        <path
           sodipodi:nodetypes="cc"
           style="fill:none;stroke:#000000;stroke-width:2;stroke-linecap:butt;stroke-linejoin:miter;stroke-opacity:1;stroke-miterlimit:4;stroke-dasharray:none"
           d="m 179.85514,112.24982 479.92977,0"
           id="path3072"
           inkscape:connector-curvature="0"
           inkscape:original-d="m 180,112.36218 480,0" />
        <path
           sodipodi:nodetypes="cc"
           style="fill:none;stroke:#000000;stroke-width:2;stroke-linecap:butt;stroke-linejoin:miter;stroke-opacity:1;stroke-miterlimit:4;stroke-dasharray:none"
           d="m 167.34576,152.24982 504.92978,0"
           id="path3074"
           inkscape:connector-curvature="0"
           inkscape:original-d="m 180,152.36218 480,0" />
        <path
           sodipodi:nodetypes="cc"
           style="fill:none;stroke:#000000;stroke-width:2;stroke-linecap:butt;stroke-linejoin:miter;stroke-opacity:1;stroke-miterlimit:4;stroke-dasharray:none"
           d="m 154.83639,192.24982 529.92977,0"
           id="path3076"
           inkscape:connector-curvature="0"
           inkscape:original-d="m 180,192.36218 480,0" />
        <path
           sodipodi:nodetypes="cc"
           style="fill:none;stroke:#000000;stroke-width:2;stroke-linecap:butt;stroke-linejoin:miter;stroke-opacity:1;stroke-miterlimit:4;stroke-dasharray:none"
           d="m 142.32701,232.24982 554.92978,0"
           id="path3078"
           inkscape:connector-curvature="0"
           inkscape:original-d="m 180,232.36218 480,0" />
        <path
           sodipodi:nodetypes="cc"
           style="fill:none;stroke:#000000;stroke-width:2;stroke-linecap:butt;stroke-linejoin:miter;stroke-opacity:1;stroke-miterlimit:4;stroke-dasharray:none"
           d="m 129.81764,272.24982 579.92977,0"
           id="path3084"
           inkscape:connector-curvature="0"
           inkscape:original-d="m 180,272.36218 480,0" />
        <path
           sodipodi:nodetypes="cc"
           style="fill:none;stroke:#000000;stroke-width:2;stroke-linecap:butt;stroke-linejoin:miter;stroke-opacity:1;stroke-miterlimit:4;stroke-dasharray:none"
           d="m 117.30826,312.24982 604.92978,0"
           id="path3074-7"
           inkscape:connector-curvature="0"
           inkscape:original-d="m 180,312.36218 480,0" />
        <path
           sodipodi:nodetypes="cc"
           style="fill:none;stroke:#000000;stroke-width:2;stroke-linecap:butt;stroke-linejoin:miter;stroke-opacity:1;stroke-miterlimit:4;stroke-dasharray:none"
           d="m 104.79889,352.24982 629.92977,0"
           id="path3076-8"
           inkscape:connector-curvature="0"
           inkscape:original-d="m 180,352.36218 480,0" />
        <path
           sodipodi:nodetypes="cc"
           style="fill:none;stroke:#000000;stroke-width:2;stroke-linecap:butt;stroke-linejoin:miter;stroke-opacity:1;stroke-miterlimit:4;stroke-dasharray:none"
           d="m 92.289515,392.24982 654.929775,0"
           id="path3078-8"
           inkscape:connector-curvature="0"
           inkscape:original-d="m 180,392.36218 480,0" />
        <path
           sodipodi:nodetypes="cc"
           style="fill:none;stroke:#000000;stroke-width:2;stroke-linecap:butt;stroke-linejoin:miter;stroke-opacity:1;stroke-miterlimit:4;stroke-dasharray:none"
           d="m 79.78014,432.24982 679.92977,0"
           id="path3084-3"
           inkscape:connector-curvature="0"
           inkscape:original-d="m 180,432.36218 480,0" />
        <path
           style="fill:none;stroke:#000000;stroke-width:2;stroke-linecap:butt;stroke-linejoin:miter;stroke-opacity:1;stroke-miterlimit:4;stroke-dasharray:none"
           d="m 659.78491,112.24982 c 33.30834,106.66666 66.61667,213.33333 99.925,320"
           id="path2987-4-5-2-4"
           inkscape:connector-curvature="0"
           inkscape:original-d="m 660,112.36218 0,320" />
      </g>
    </g>
  </g>
</svg>
