<?xml version="1.0" encoding="UTF-8" standalone="no"?>
<!-- Created with Inkscape (http://www.inkscape.org/) -->

<svg
   xmlns:dc="http://purl.org/dc/elements/1.1/"
   xmlns:cc="http://creativecommons.org/ns#"
   xmlns:rdf="http://www.w3.org/1999/02/22-rdf-syntax-ns#"
   xmlns:svg="http://www.w3.org/2000/svg"
   xmlns="http://www.w3.org/2000/svg"
   xmlns:sodipodi="http://sodipodi.sourceforge.net/DTD/sodipodi-0.dtd"
   xmlns:inkscape="http://www.inkscape.org/namespaces/inkscape"
   width="380.61642"
   height="109.13239"
   id="svg2"
   version="1.1"
   inkscape:version="0.48.3.1 r9886"
   inkscape:export-filename="/home/mfelis/projects/ld48/28/img/header.png"
   inkscape:export-xdpi="47.290001"
   inkscape:export-ydpi="47.290001"
   sodipodi:docname="New document 1">
  <defs
     id="defs4" />
  <sodipodi:namedview
     id="base"
     pagecolor="#000000"
     bordercolor="#666666"
     borderopacity="1.0"
     inkscape:pageopacity="0"
     inkscape:pageshadow="2"
     inkscape:zoom="0.98994949"
     inkscape:cx="346.56884"
     inkscape:cy="-12.189287"
     inkscape:document-units="px"
     inkscape:current-layer="layer1"
     showgrid="false"
     fit-margin-top="0"
     fit-margin-left="0"
     fit-margin-right="0"
     fit-margin-bottom="0"
     inkscape:window-width="1362"
     inkscape:window-height="729"
     inkscape:window-x="0"
     inkscape:window-y="37"
     inkscape:window-maximized="0" />
  <metadata
     id="metadata7">
    <rdf:RDF>
      <cc:Work
         rdf:about="">
        <dc:format>image/svg+xml</dc:format>
        <dc:type
           rdf:resource="http://purl.org/dc/dcmitype/StillImage" />
        <dc:title></dc:title>
      </cc:Work>
    </rdf:RDF>
  </metadata>
  <g
     inkscape:label="Layer 1"
     inkscape:groupmode="layer"
     id="layer1"
     transform="translate(-69.9375,-371)">
    <g
       id="g3227"
       style="fill:#ffffff">
      <path
         style="font-size:47.60271835px;font-style:italic;font-variant:normal;font-weight:bold;font-stretch:normal;line-height:125%;letter-spacing:-2px;word-spacing:0px;fill:#ffffff;fill-opacity:1;stroke:none;font-family:Arial;-inkscape-font-specification:Arial Bold Italic"
         d="m 90.625,371.78125 c -4.522805,0.97901 -12.066407,-1.65009 -13.875,4.59375 -2.368659,16.88632 -4.481041,33.82193 -6.8125,50.71875 10.739583,0 21.479167,0 32.21875,0 -1.74429,-6.05499 4.26367,-14.04163 -2.125,-18.65625 -3.055647,-2.36619 -6.796497,0.20515 -10,0 1.182126,-11.17044 3.051094,-22.28667 4.5,-33.40625 0.08173,-2.07127 -1.844038,-3.78672 -3.90625,-3.25 z"
         id="path3097"
         inkscape:connector-curvature="0" />
      <path
         style="font-size:47.60271835px;font-style:italic;font-variant:normal;font-weight:bold;font-stretch:normal;line-height:125%;letter-spacing:-2px;word-spacing:0px;fill:#ffffff;fill-opacity:1;stroke:none;font-family:Arial;-inkscape-font-specification:Arial Bold Italic"
         d="m 111.28125,383.5625 c -4.75718,1.22768 -12.873297,-1.90852 -14.8125,4.65625 -0.405875,11.70441 -6.828726,24.79096 -0.125,35.8125 3.378785,4.47452 9.41942,3.76496 14.125,3.3125 6.91996,1.69667 14.12061,-4.85028 12.44887,-11.90352 0.69566,-10.36485 2.7145,-20.57256 3.83238,-30.87773 -4.35944,-0.94799 -9.42231,-1.08421 -13.5,-0.375 -0.44786,-0.50918 -1.30547,-0.77031 -1.96875,-0.625 z"
         id="path3099"
         inkscape:connector-curvature="0" />
      <path
         style="font-size:47.60271835px;font-style:italic;font-variant:normal;font-weight:bold;font-stretch:normal;line-height:125%;letter-spacing:-2px;word-spacing:0px;fill:#ffffff;fill-opacity:1;stroke:none;font-family:Arial;-inkscape-font-specification:Arial Bold Italic"
         d="m 134.125,383.3125 c -4.60491,2.47605 -11.39744,-2.28407 -14.875,3.21875 -4.08533,9.34116 -2.26399,19.91195 -5.03125,29.59375 -1.68128,4.40685 -0.97146,12.25732 5.65625,11.25 3.52118,0.95112 6.68285,-2.27494 9.71875,-0.1875 5.66381,1.19335 13.32475,-0.26145 14.53125,-6.90625 0.47275,-6.58798 1.05771,-13.13174 2.25,-19.71875 1.2711,-7.90026 -2.88997,-18.22876 -12.25,-17.25 z"
         id="path3101"
         inkscape:connector-curvature="0" />
      <path
         style="font-size:47.60271835px;font-style:italic;font-variant:normal;font-weight:bold;font-stretch:normal;line-height:125%;letter-spacing:-2px;word-spacing:0px;fill:#ffffff;fill-opacity:1;stroke:none;font-family:Arial;-inkscape-font-specification:Arial Bold Italic"
         d="m 152.25,383.28125 c -11.90859,1.31981 -16.97806,15.17156 -16.40625,25.78125 -0.98565,9.21769 6.51994,20.75221 16.75,18.5 9.97082,-2.19162 12.95466,-13.52161 14.40625,-22.28125 -3.04808,0.2482 -5.71367,0.67844 -2.125,-1.28125 4.84423,-5.25198 0.67288,-13.48911 -3.5,-17.6875 -2.47837,-2.18723 -5.81811,-3.35902 -9.125,-3.03125 z"
         id="path3103"
         inkscape:connector-curvature="0" />
      <path
         style="font-size:47.60271835px;font-style:italic;font-variant:normal;font-weight:bold;font-stretch:normal;line-height:125%;letter-spacing:-2px;word-spacing:0px;fill:#ffffff;fill-opacity:1;stroke:none;font-family:Arial;-inkscape-font-specification:Arial Bold Italic"
         d="m 170.59375,371.9375 c -4.00092,-0.16291 -10.84556,0.0318 -10.3125,5.78125 -1.86675,16.24997 -4.22063,32.54573 -6.375,48.8125 4.78617,1.01749 10.27226,1.24028 14.6875,-0.0937 5.77939,2.43447 15.07403,1.16413 16.46875,-6.125 0.68163,-6.18588 0.8037,-12.4277 2.15625,-18.59375 1.37596,-7.3322 -1.505,-17.68094 -10.0625,-18.4375 1.60637,-5.00865 0.25783,-12.24928 -6.5625,-11.34375 z"
         id="path3105"
         inkscape:connector-curvature="0" />
      <path
         style="font-size:47.60271835px;font-style:italic;font-variant:normal;font-weight:bold;font-stretch:normal;line-height:125%;letter-spacing:-2px;word-spacing:0px;fill:#ffffff;fill-opacity:1;stroke:none;font-family:Arial;-inkscape-font-specification:Arial Bold Italic"
         d="m 197.25,371.65625 c -4.86781,1.52765 -12.97868,-2.05661 -15.1875,4.5625 -2.31535,16.62707 -4.39321,33.46196 -6.71875,50.15625 6.56949,2.12637 17.42877,1.9279 18.8125,-6.65625 0.8285,-16.35565 4.06467,-32.44628 5.84375,-48.6875 -0.91667,0.20833 -1.83333,0.41667 -2.75,0.625 z"
         id="path3107"
         inkscape:connector-curvature="0" />
      <path
         style="font-size:47.60271835px;font-style:italic;font-variant:normal;font-weight:bold;font-stretch:normal;line-height:125%;letter-spacing:-2px;word-spacing:0px;fill:#ffffff;fill-opacity:1;stroke:none;font-family:Arial;-inkscape-font-specification:Arial Bold Italic"
         d="m 201.8125,383.28125 c -10.16913,-0.11373 -15.6976,11.25327 -15.28125,20.28125 1.19198,0.14202 -1.37337,3.39727 -1.09375,4.96875 -2.05778,8.18111 2.76322,20.20648 12.5625,19.15625 4.94136,-2.28529 11.57395,2.30278 15.1875,-3.21875 3.40311,-4.11537 -1.23643,-8.84549 0.92267,-13.36495 1.7134,-8.56393 3.80271,-20.70969 -5.01642,-26.13505 -2.17977,-1.245 -4.7637,-1.8338 -7.28125,-1.6875 z"
         id="path3109"
         inkscape:connector-curvature="0" />
      <path
         style="font-size:47.60271835px;font-style:italic;font-variant:normal;font-weight:bold;font-stretch:normal;line-height:125%;letter-spacing:-2px;word-spacing:0px;fill:#ffffff;fill-opacity:1;stroke:none;font-family:Arial;-inkscape-font-specification:Arial Bold Italic"
         d="m 238.40625,371.65625 c -5.00061,1.18309 -13.46366,-1.79041 -15.46875,5.09375 -0.73684,2.08591 -0.3212,4.87176 -0.8125,6.59375 -10.32171,-0.76481 -15.9396,10.61487 -16.5,19.5 -1.81844,9.04267 0.0665,22.37824 10.625,24.71875 5.1027,0.89276 10.42118,-2.40052 15.25,0.40625 6.1832,-10.91444 4.04295,-24.01842 6.90892,-35.88607 0.92625,-7.02755 1.85194,-14.05518 2.77858,-21.08268 -0.92708,0.21875 -1.85417,0.4375 -2.78125,0.65625 z"
         id="path3111"
         inkscape:connector-curvature="0" />
      <path
         style="font-size:47.60271835px;font-style:italic;font-variant:normal;font-weight:bold;font-stretch:normal;line-height:125%;letter-spacing:-2px;word-spacing:0px;fill:#ffffff;fill-opacity:1;stroke:none;font-family:Arial;-inkscape-font-specification:Arial Bold Italic"
         d="m 234.03125,383.65625 c -5.1794,-0.10913 -8.13899,5.80897 -6.14056,10.21569 0.68911,8.46893 2.87288,17.04715 2.51556,25.40931 -1.81174,-3.20041 -6.56981,-1.40547 -5.28125,2.125 0.81999,5.55989 -2.98614,13.83383 3.65625,17.125 8.34261,4.55412 17.20296,-3.51386 18.53125,-11.6875 4.72037,-14.0723 9.88162,-28.00483 14.875,-42.03125 -6.04679,-1.72195 -13.33388,-1.72041 -18.5,1.375 -2.4916,-2.47522 -6.33477,-2.69212 -9.65625,-2.53125 z"
         id="path3113"
         inkscape:connector-curvature="0" />
      <path
         style="font-size:47.60271835px;font-style:italic;font-variant:normal;font-weight:bold;font-stretch:normal;line-height:125%;letter-spacing:-2px;word-spacing:0px;fill:#ffffff;fill-opacity:1;stroke:none;font-family:Arial;-inkscape-font-specification:Arial Bold Italic"
         d="m 102.9375,423.5625 c -12.685892,0.6654 -17.991749,16.63738 -13.25,27 1.847986,2.46857 0.481038,2.61396 -1.75,3.21875 -5.462154,2.58222 -3.053047,10.02163 -2.03125,14.5 2.703527,9.94948 15.41462,15.36965 24.03125,9.21875 8.95652,-6.18621 11.18122,-20.12227 4.84375,-28.84375 5.17625,-1.49447 6.54681,-7.55621 4.5625,-12.03125 -1.75932,-7.33792 -8.40945,-13.876 -16.40625,-13.0625 z"
         id="path3078"
         inkscape:connector-curvature="0" />
      <path
         style="font-size:47.60271835px;font-style:italic;font-variant:normal;font-weight:bold;font-stretch:normal;line-height:125%;letter-spacing:-2px;word-spacing:0px;fill:#ffffff;fill-opacity:1;stroke:none;font-family:Arial;-inkscape-font-specification:Arial Bold Italic"
         d="m 118.625,424.1875 c -6.69398,0.85403 -6.23482,9.38277 -6.125,14.3125 -2.6537,12.99955 -3.3979,26.74166 -5.59375,40.03125 6.56949,2.12637 17.42877,1.9279 18.8125,-6.65625 0.20546,-14.14465 4.00784,-27.99036 4.96875,-42 -0.46108,-4.01046 -4.62543,-6.44973 -8.34375,-5.53125 -1.23682,-0.10568 -2.47493,-0.27017 -3.71875,-0.15625 z"
         id="path3080"
         inkscape:connector-curvature="0" />
      <path
         style="font-size:47.60271835px;font-style:italic;font-variant:normal;font-weight:bold;font-stretch:normal;line-height:125%;letter-spacing:-2px;word-spacing:0px;fill:#ffffff;fill-opacity:1;stroke:none;font-family:Arial;-inkscape-font-specification:Arial Bold Italic"
         d="m 136.21875,435.4375 c -4.87102,1.66161 -10.06386,0.0823 -15.0625,0.90625 -1.72039,14.13177 -3.63487,28.23922 -5.5625,42.34375 4.72577,0.91565 9.86705,1.27313 14.34375,0 3.64315,1.76585 8.08882,0.6102 11.59375,0 6.55999,3.06725 17.54267,-0.70235 15.96875,-9.3125 0.20373,-10.13523 5.99733,-22.40787 -1.5625,-31.34375 -3.54634,-3.48785 -9.1895,-2.80693 -13.28125,-1.09375 -1.89265,-1.17523 -4.21305,-1.69213 -6.4375,-1.5 z"
         id="path3082"
         inkscape:connector-curvature="0" />
      <path
         style="font-size:47.60271835px;font-style:italic;font-variant:normal;font-weight:bold;font-stretch:normal;line-height:125%;letter-spacing:-2px;word-spacing:0px;fill:#ffffff;fill-opacity:1;stroke:none;font-family:Arial;-inkscape-font-specification:Arial Bold Italic"
         d="m 167.78125,435.71875 c -4.83563,1.26288 -12.91583,-1.95708 -14.90625,4.65625 -0.40197,11.79566 -7.06815,25.26528 0.21875,36.21875 3.50731,4.50852 9.62547,2.7885 14.34375,3 7.17088,1.39895 13.78626,-5.81054 11.85322,-12.80716 1.00052,-10.02942 2.61306,-20.03049 3.92803,-30.06784 -4.37979,-0.87979 -9.2936,-1.16774 -13.46875,-0.34375 -0.45126,-0.49632 -1.3021,-0.80211 -1.96875,-0.65625 z"
         id="path3084"
         inkscape:connector-curvature="0" />
      <path
         style="font-size:47.60271835px;font-style:italic;font-variant:normal;font-weight:bold;font-stretch:normal;line-height:125%;letter-spacing:-2px;word-spacing:0px;fill:#ffffff;fill-opacity:1;stroke:none;font-family:Arial;-inkscape-font-specification:Arial Bold Italic"
         d="m 191.1875,423.8125 c -4.86781,1.52765 -12.97868,-2.05661 -15.1875,4.5625 -2.31535,16.62707 -4.39321,33.46196 -6.71875,50.15625 6.56949,2.12637 17.42877,1.9279 18.8125,-6.65625 0.8285,-16.35565 4.06467,-32.44628 5.84375,-48.6875 -0.91667,0.20833 -1.83333,0.41667 -2.75,0.625 z"
         id="path3086"
         inkscape:connector-curvature="0" />
      <path
         style="font-size:47.60271835px;font-style:italic;font-variant:normal;font-weight:bold;font-stretch:normal;line-height:125%;letter-spacing:-2px;word-spacing:0px;fill:#ffffff;fill-opacity:1;stroke:none;font-family:Arial;-inkscape-font-specification:Arial Bold Italic"
         d="m 195.40625,435.4375 c -10.07398,0.23185 -15.31636,11.33172 -14.9375,20.28125 0.78686,0.43505 -1.42085,3.99523 -1.28125,5.9375 -1.60671,8.08231 3.46529,19.42657 12.96875,18.15625 4.72332,-2.23551 10.96773,2.09482 14.65625,-2.78125 3.74956,-3.77498 -0.73796,-8.81622 1.125,-13.1875 1.84753,-8.90202 4.07933,-21.83567 -5.59375,-27.125 -2.15267,-0.98572 -4.5439,-1.45412 -6.9375,-1.28125 z"
         id="path3088"
         inkscape:connector-curvature="0" />
      <path
         style="font-size:47.60271835px;font-style:italic;font-variant:normal;font-weight:bold;font-stretch:normal;line-height:125%;letter-spacing:-2px;word-spacing:0px;fill:#ffffff;fill-opacity:1;stroke:none;font-family:Arial;-inkscape-font-specification:Arial Bold Italic"
         d="m 217.71875,422.5625 c -6.4346,2.64082 -10.7559,9.02051 -14.59375,14.5625 -5.03904,4.37481 -3.30242,11.67903 -1.65625,17.125 -0.91372,7.85764 -4.23144,18.86207 3.90625,24.21875 5.96758,4.0878 16.17086,0.30036 15.5625,-7.625 1.25808,-3.07424 -0.0987,-6.83568 -2.78125,-8.59375 0.47495,-3.37887 -1.41935,-8.01197 2.65625,-9.59375 4.33225,-4.69996 2.89819,-11.84295 0.25,-16.9375 0.70242,-4.21194 4.14522,-13.10891 -3.34375,-13.15625 z"
         id="path3090"
         inkscape:connector-curvature="0" />
      <path
         style="font-size:47.60271835px;font-style:italic;font-variant:normal;font-weight:bold;font-stretch:normal;line-height:125%;letter-spacing:-2px;word-spacing:0px;fill:#ffffff;fill-opacity:1;stroke:none;font-family:Arial;-inkscape-font-specification:Arial Bold Italic"
         d="m 227.03125,435.40625 c -11.66852,0.52624 -17.45167,13.80257 -16.84375,24.15625 -1.71816,10.38942 7.65869,23.41055 18.90625,19.875 17.76261,-4.89925 19.10212,-44.38403 -2.0625,-44.03125 z"
         id="path3092"
         inkscape:connector-curvature="0" />
      <path
         style="font-size:47.60271835px;font-style:italic;font-variant:normal;font-weight:bold;font-stretch:normal;line-height:125%;letter-spacing:-2px;word-spacing:0px;fill:#ffffff;fill-opacity:1;stroke:none;font-family:Arial;-inkscape-font-specification:Arial Bold Italic"
         d="m 249.25,435.65625 c -4.3001,1.91126 -11.51372,-1.92585 -14.125,3.3125 -1.6422,13.20032 -3.42802,26.38194 -5.21875,39.5625 6.57689,2.18471 17.50449,1.88063 18.84375,-6.71875 0.84694,-5.2542 -0.57062,-12.41679 2.84375,-16.4375 6.80336,-0.81991 7.80567,-9.59008 7.21875,-15.0625 -1.19611,-3.79805 -5.99953,-5.43763 -9.5625,-4.65625 z"
         id="path3094"
         inkscape:connector-curvature="0" />
      <path
         style="font-size:106.2212677px;font-style:italic;font-variant:normal;font-weight:bold;font-stretch:normal;line-height:125%;letter-spacing:-3.74877191px;word-spacing:0px;fill:#ffffff;fill-opacity:1;stroke:none;font-family:Arial;-inkscape-font-specification:Arial Bold Italic"
         d="M 283.96875,373.84375 C 268.31069,374.03249 258.75398,390.40124 258,404.5625 c -0.4858,7.37795 8.62297,8.59213 14.09375,8.78125 3.87494,1.87326 9.72007,1.01364 10.28125,-4 1.01941,-2.69333 -0.51564,-8.02568 2.65625,-9.0625 2.10939,6.78492 -3.11234,13.66023 -6.65625,19.21875 -12.99549,16.04594 -27.04247,33.80394 -26.87404,55.53079 3.00679,2.62123 11.15288,0.25653 16.03029,1.06296 11.5625,0 23.125,0 34.6875,0 1.37796,-9.34484 2.7614,-18.68891 4.15625,-28.03125 -6.01042,0 -12.02083,0 -18.03125,0 11.06266,-14.01766 23.80003,-30.02451 21.34375,-49.09375 -1.21826,-13.01868 -11.66843,-26.19763 -25.71875,-25.125 z"
         id="path3069"
         inkscape:connector-curvature="0" />
      <path
         style="font-size:106.2212677px;font-style:italic;font-variant:normal;font-weight:bold;font-stretch:normal;line-height:125%;letter-spacing:-3.74877191px;word-spacing:0px;fill:#ffffff;fill-opacity:1;stroke:none;font-family:Arial;-inkscape-font-specification:Arial Bold Italic"
         d="m 332.15625,373.90625 c -15.19329,1.10025 -23.58632,16.58312 -27.15187,29.77341 -5.95433,20.52592 -9.96871,44.3418 0.46437,64.13284 6.48653,10.25062 22.48814,13.53744 31.40625,4.40625 14.26165,-12.2535 16.3967,-32.57214 19.28125,-50.09375 1.66161,-15.15448 1.08066,-33.56528 -11.34375,-44.15625 -3.60307,-2.71232 -8.08601,-4.42024 -12.65625,-4.0625 z m -0.0625,27.5625 c 0.85711,9.73484 -1.20753,19.73042 -2.125,29.40625 -1.00358,6.42575 -2.72654,14.25369 -6.03125,19.03125 -1.76543,-12.00948 1.70218,-24.06774 3.4375,-35.90625 0.99444,-4.28012 2.19157,-9.17038 4.71875,-12.53125 z"
         id="path3071"
         inkscape:connector-curvature="0" />
      <path
         style="font-size:106.2212677px;font-style:italic;font-variant:normal;font-weight:bold;font-stretch:normal;line-height:125%;letter-spacing:-3.74877191px;word-spacing:0px;fill:#ffffff;fill-opacity:1;stroke:none;font-family:Arial;-inkscape-font-specification:Arial Bold Italic"
         d="m 379.03125,373.90625 c -14.56456,0.9863 -22.96665,15.5124 -26.6875,28.0625 -6.21751,21.00048 -10.69583,45.48951 -0.0625,65.75 6.48824,10.3271 22.58979,13.73512 31.5,4.46875 14.39195,-12.50961 16.52868,-33.09886 19.3125,-50.90625 1.5581,-15.23394 0.812,-33.96292 -12.375,-44 -3.42798,-2.30586 -7.50558,-3.69912 -11.6875,-3.375 z m -0.28125,27.0625 c -0.0194,0.0849 -0.0394,-0.0144 0,0 z m 0,0.0312 c 1.62175,8.03731 -0.95362,16.4382 -1.23962,24.55591 -1.02609,8.44109 -2.6194,17.75744 -6.66663,24.94409 -1.05797,-16.78972 1.57774,-34.0061 7.90625,-49.5 z"
         id="path3073"
         inkscape:connector-curvature="0" />
      <path
         style="font-size:106.2212677px;font-style:italic;font-variant:normal;font-weight:bold;font-stretch:normal;line-height:125%;letter-spacing:-3.74877191px;word-spacing:0px;fill:#ffffff;fill-opacity:1;stroke:none;font-family:Arial;-inkscape-font-specification:Arial Bold Italic"
         d="m 425.875,373.90625 c -15.27719,1.13901 -23.62809,16.71184 -27.21437,29.92966 -5.86619,20.51492 -9.92159,44.32032 0.55812,64.00784 6.43588,10.01941 21.85263,13.45148 30.84375,4.84375 14.71916,-12.24213 16.93711,-32.76618 19.8125,-50.46875 1.63821,-15.05133 1.12792,-33.14319 -10.9375,-43.9375 -3.65666,-2.914 -8.33559,-4.73233 -13.0625,-4.375 z m -0.125,27.375 c 1.04662,9.00756 -0.94859,18.24665 -1.6875,27.21875 -1.15649,7.52658 -2.724,15.12003 -6.15625,21.96875 -1.81443,-15.95952 1.87979,-32.18665 6.5625,-47.3125 0.4183,-0.61669 0.76891,-1.42333 1.28125,-1.875 z"
         id="path3075"
         inkscape:connector-curvature="0" />
    </g>
    <g
       id="g3251"
       style="fill:#000000"
       transform="translate(-60.609153,255.56859)">
      <text
         transform="scale(0.79396837,1.259496)"
         sodipodi:linespacing="125%"
         id="text2985"
         y="130.84885"
         x="168.54793"
         style="font-size:47.60271835px;font-style:italic;font-weight:bold;line-height:125%;letter-spacing:-2px;word-spacing:0px;fill:#000000;fill-opacity:1;stroke:#000000;font-family:Sans;-inkscape-font-specification:Arial Bold Italic"
         xml:space="preserve"><tspan
           style="font-style:italic;font-variant:normal;font-weight:bold;font-stretch:normal;letter-spacing:-2px;fill:#000000;stroke:#000000;font-family:Arial;-inkscape-font-specification:Arial Bold Italic"
           y="130.84885"
           x="168.54793"
           id="tspan2987"
           sodipodi:role="line">Lunchlady</tspan></text>
      <text
         transform="scale(0.79396838,1.259496)"
         sodipodi:linespacing="125%"
         id="text2985-3"
         y="172.26225"
         x="185.40048"
         style="font-size:47.60271835px;font-style:normal;font-weight:normal;line-height:125%;letter-spacing:-2px;word-spacing:0px;fill:#000000;fill-opacity:1;stroke:#000000;font-family:Sans"
         xml:space="preserve"><tspan
           style="font-style:italic;font-variant:normal;font-weight:bold;font-stretch:normal;letter-spacing:-2px;fill:#000000;stroke:#000000;font-family:Arial;-inkscape-font-specification:Arial Bold Italic"
           y="172.26225"
           x="185.40048"
           id="tspan2987-7"
           sodipodi:role="line">Simulator</tspan></text>
      <text
         transform="scale(0.84625403,1.1816783)"
         sodipodi:linespacing="125%"
         id="text2985-3-0"
         y="180.95274"
         x="367.77905"
         style="font-size:106.2212677px;font-style:normal;font-weight:normal;line-height:125%;letter-spacing:-3.74877191px;word-spacing:0px;fill:#000000;fill-opacity:1;stroke:#000000;font-family:Sans"
         xml:space="preserve"><tspan
           style="font-style:italic;font-variant:normal;font-weight:bold;font-stretch:normal;letter-spacing:-3.74877191px;fill:#000000;stroke:#000000;font-family:Arial;-inkscape-font-specification:Arial Bold Italic"
           y="180.95274"
           x="367.77905"
           id="tspan2987-7-1"
           sodipodi:role="line">2000</tspan></text>
    </g>
  </g>
</svg>
